…
another interval for due_next and the payment date

if the intervals overlap, the payment was made within the due date

transact %>%
  mutate(
    inv_due_interval = interval(Invoice, Due),
    due_next         = Due + days(1),
    due_pay_interval = interval(due_next, Payment),
    overlaps         = int_overlaps(inv_due_interval, due_pay_interval)
  ) %>%
  select(Invoice, Due, Payment, overlaps)

## # A tibble: 2,466 x 4
##    Invoice    Due        Payment    overlaps
##    <date>     <date>     <date>     <lgl>   
##  1 2013-01-02 2013-02-01 2013-01-15 TRUE    
##  2 2013-01-26 2013-02-25 2013-03-03 FALSE   
##  3 2013-07-03 2013-08-02 2013-07-08 TRUE    
##  4 2013-02-10 2013-03-12 2013-03-17 FALSE   
##  5 2012-10-25 2012-11-24 2012-11-28 FALSE   
##  6 2012-01-27 2012-02-26 2012-02-22 TRUE    
##  7 2013-08-13 2013-09-12 2013-09-09 TRUE    
##  8 2012-12-16 2013-01-15 2013-01-12 TRUE    
##  9 2012-05-14 2012-06-13 2012-07-01 FALSE   
## 10 2013-07-01 2013-07-31 2013-07-26 TRUE    
## # ... with 2,456 more rows

Below we show another method to count the number of invoices paid within the
due date. Instead of using days to change the due date, we use int_shift
to shift it by 1 day.

transact %>%
  mutate(
    inv_due_interval = interval(Invoice, Due),
    due_pay_interval = interval(Due, Payment),  
    due_pay_next     = int_shift(due_pay_interval, by = days(1)),
    overlaps         = int_overlaps(inv_due_interval, due_pay_next)
  ) %>%
  select(Invoice, Due, Payment, overlaps)

## # A tibble: 2,466 x 4
##    Invoice    Due        Payment    overlaps
##    <date>     <date>     <date>     <lgl>   
##  1 2013-01-02 2013-02-01 2013-01-15 TRUE    
##  2 2013-01-26 2013-02-25 2013-03-03 FALSE   
##  3 2013-07-03 2013-08-02 2013-07-08 TRUE    
##  4 2013-02-10 2013-03-12 2013-03-17 FALSE   
##  5 2012-10-25 2012-11-24 2012-11-28 FALSE   
##  6 2012-01-27 2012-02-26 2012-02-22 TRUE    
##  7 2013-08-13 2013-09-12 2013-09-09 TRUE    
##  8 2012-12-16 2013-01-15 2013-01-12 TRUE    
##  9 2012-05-14 2012-06-13 2012-07-01 FALSE   
## 10 2013-07-01 2013-07-31 2013-07-26 TRUE    
## # ... with 2,456 more rows

You might be thinking why we incremented the due date by a day before creating
the interval between the due day and the payment day. If we do not increment,
both the intervals will share a common date i.e. the due date and they will
always overlap as shown below:

transact %>%
  mutate(
    inv_due_interval = interval(Invoice, Due),
    due_pay_interval = interval(Due, Payment),
    overlaps         = int_overlaps(inv_due_interval, due_pay_interval)
  ) %>%
  select(Invoice, Due, Payment, overlaps)

## # A tibble: 2,466 x 4
##    Invoice    Due        Payment    overlaps
##    <date>     <date>     <date>     <lgl>   
##  1 2013-01-02 2013-02-01 2013-01-15 TRUE    
##  2 2013-01-26 2013-02-25 2013-03-03 TRUE    
##  3 2013-07-03 2013-08-02 2013-07-08 TRUE    
##  4 2013-02-10 2013-03-12 2013-03-17 TRUE    
##  5 2012-10-25 2012-11-24 2012-11-28 TRUE    
##  6 2012-01-27 2012-02-26 2012-02-22 TRUE    
##  7 2013-08-13 2013-09-12 2013-09-09 TRUE    
##  8 2012-12-16 2013-01-15 2013-01-12 TRUE    
##  9 2012-05-14 2012-06-13 2012-07-01 TRUE    
## 10 2013-07-01 2013-07-31 2013-07-26 TRUE    
## # ... with 2,456 more rows
…
Let us use %within% to count the number of invoices that were settled within
the due date. We will do this by:

creating an interval for the invoice and due date

check if the payment date falls within the above interval

transact %>%
  mutate(
    inv_due_interval = interval(Invoice, Due),
    overlaps         = Payment %within% inv_due_interval
  ) %>%
  select(Due, Payment, overlaps)

## # A tibble: 2,466 x 3
##    Due        Payment    overlaps
##    <date>     <date>     <lgl>   
##  1 2013-02-01 2013-01-15 TRUE    
##  2 2013-02-25 2013-03-03 FALSE   
##  3 2013-08-02 2013-07-08 TRUE    
##  4 2013-03-12 2013-03-17 FALSE   
##  5 2012-11-24 2012-11-28 FALSE   
##  6 2012-02-26 2012-02-22 TRUE    
##  7 2013-09-12 2013-09-09 TRUE    
##  8 2013-01-15 2013-01-12 TRUE    
##  9 2012-06-13 2012-07-01 FALSE   
## 10 2013-07-31 2013-07-26 TRUE    
## # ... with 2,456 more rows
…
