…
Case Study

Extract Date, Month & Year from Due Date

Let us now extract the date, month and year from the Due column.

transact %>%
  mutate(
    due_day   = day(Due),
    due_month = month(Due),
    due_year  = year(Due)
  )

## # A tibble: 2,466 x 6
##    Invoice    Due        Payment    due_day due_month due_year
##    <date>     <date>     <date>       <int>     <dbl>    <dbl>
##  1 2013-01-02 2013-02-01 2013-01-15       1         2     2013
##  2 2013-01-26 2013-02-25 2013-03-03      25         2     2013
##  3 2013-07-03 2013-08-02 2013-07-08       2         8     2013
##  4 2013-02-10 2013-03-12 2013-03-17      12         3     2013
##  5 2012-10-25 2012-11-24 2012-11-28      24        11     2012
##  6 2012-01-27 2012-02-26 2012-02-22      26         2     2012
##  7 2013-08-13 2013-09-12 2013-09-09      12         9     2013
##  8 2012-12-16 2013-01-15 2013-01-12      15         1     2013
##  9 2012-05-14 2012-06-13 2012-07-01      13         6     2012
## 10 2013-07-01 2013-07-31 2013-07-26      31         7     2013
## # ... with 2,456 more rows
…
