…
Case Study

Compute days to settle invoice

Let us estimate the number of days to settle the invoice by subtracting the
date of invoice from the date of payment.

transact %>%
  mutate(
    days_to_pay = Payment - Invoice
  )

## # A tibble: 2,466 x 4
##    Invoice    Due        Payment    days_to_pay
##    <date>     <date>     <date>     <drtn>     
##  1 2013-01-02 2013-02-01 2013-01-15 13 days    
##  2 2013-01-26 2013-02-25 2013-03-03 36 days    
##  3 2013-07-03 2013-08-02 2013-07-08  5 days    
##  4 2013-02-10 2013-03-12 2013-03-17 35 days    
##  5 2012-10-25 2012-11-24 2012-11-28 34 days    
##  6 2012-01-27 2012-02-26 2012-02-22 26 days    
##  7 2013-08-13 2013-09-12 2013-09-09 27 days    
##  8 2012-12-16 2013-01-15 2013-01-12 27 days    
##  9 2012-05-14 2012-06-13 2012-07-01 48 days    
## 10 2013-07-01 2013-07-31 2013-07-26 25 days    
## # ... with 2,456 more rows
…
How many of the invoices were settled post the due date? We can find this by:

subtracting the due date from the payment date

counting the number of rows where delay > 0

transact %>%
  mutate(
    delay = Payment - Due
  ) %>%
  filter(delay > 0) %>% 
  count(delay)

## # A tibble: 36 x 2
##    delay       n
##  * <drtn>  <int>
##  1  1 days    61
##  2  2 days    65
##  3  3 days    51
##  4  4 days    62
##  5  5 days    69
##  6  6 days    56
##  7  7 days    55
##  8  8 days    49
##  9  9 days    38
## 10 10 days    33
## # ... with 26 more rows
…
